%YAML 1.1
%TAG !u! tag:unity3d.com,2011:
--- !u!1001 &643371719033484523
PrefabInstance:
  m_ObjectHideFlags: 0
  serializedVersion: 2
  m_Modification:
    serializedVersion: 3
    m_TransformParent: {fileID: 0}
    m_Modifications:
    - target: {fileID: -8679921383154817045, guid: 940e3933f0ae1dc4187e8de1d85ed486,
        type: 3}
      propertyPath: m_LocalScale.x
      value: 29.58
      objectReference: {fileID: 0}
    - target: {fileID: -8679921383154817045, guid: 940e3933f0ae1dc4187e8de1d85ed486,
        type: 3}
      propertyPath: m_LocalScale.y
      value: 29.58
      objectReference: {fileID: 0}
    - target: {fileID: -8679921383154817045, guid: 940e3933f0ae1dc4187e8de1d85ed486,
        type: 3}
      propertyPath: m_LocalScale.z
      value: 29.58
      objectReference: {fileID: 0}
    - target: {fileID: -8679921383154817045, guid: 940e3933f0ae1dc4187e8de1d85ed486,
        type: 3}
      propertyPath: m_LocalPosition.x
      value: -10.242
      objectReference: {fileID: 0}
    - target: {fileID: -8679921383154817045, guid: 940e3933f0ae1dc4187e8de1d85ed486,
        type: 3}
      propertyPath: m_LocalPosition.y
      value: 8.877
      objectReference: {fileID: 0}
    - target: {fileID: -8679921383154817045, guid: 940e3933f0ae1dc4187e8de1d85ed486,
        type: 3}
      propertyPath: m_LocalPosition.z
      value: 2.179
      objectReference: {fileID: 0}
    - target: {fileID: -8679921383154817045, guid: 940e3933f0ae1dc4187e8de1d85ed486,
        type: 3}
      propertyPath: m_LocalRotation.w
      value: 1
      objectReference: {fileID: 0}
    - target: {fileID: -8679921383154817045, guid: 940e3933f0ae1dc4187e8de1d85ed486,
        type: 3}
      propertyPath: m_LocalRotation.x
      value: 0
      objectReference: {fileID: 0}
    - target: {fileID: -8679921383154817045, guid: 940e3933f0ae1dc4187e8de1d85ed486,
        type: 3}
      propertyPath: m_LocalRotation.y
      value: 0
      objectReference: {fileID: 0}
    - target: {fileID: -8679921383154817045, guid: 940e3933f0ae1dc4187e8de1d85ed486,
        type: 3}
      propertyPath: m_LocalRotation.z
      value: 0
      objectReference: {fileID: 0}
    - target: {fileID: -8679921383154817045, guid: 940e3933f0ae1dc4187e8de1d85ed486,
        type: 3}
      propertyPath: m_LocalEulerAnglesHint.x
      value: 0
      objectReference: {fileID: 0}
    - target: {fileID: -8679921383154817045, guid: 940e3933f0ae1dc4187e8de1d85ed486,
        type: 3}
      propertyPath: m_LocalEulerAnglesHint.y
      value: 0
      objectReference: {fileID: 0}
    - target: {fileID: -8679921383154817045, guid: 940e3933f0ae1dc4187e8de1d85ed486,
        type: 3}
      propertyPath: m_LocalEulerAnglesHint.z
      value: 0
      objectReference: {fileID: 0}
    - target: {fileID: -7511558181221131132, guid: 940e3933f0ae1dc4187e8de1d85ed486,
        type: 3}
      propertyPath: m_Materials.Array.data[0]
      value: 
      objectReference: {fileID: 2100000, guid: 4d0fedf2c2adf4540a126f60cedaa13a, type: 2}
    - target: {fileID: 919132149155446097, guid: 940e3933f0ae1dc4187e8de1d85ed486,
        type: 3}
      propertyPath: m_Name
      value: coin
      objectReference: {fileID: 0}
    m_RemovedComponents: []
    m_RemovedGameObjects: []
    m_AddedGameObjects: []
    m_AddedComponents:
    - targetCorrespondingSourceObject: {fileID: 919132149155446097, guid: 940e3933f0ae1dc4187e8de1d85ed486,
        type: 3}
      insertIndex: -1
      addedObject: {fileID: 6383953476098096719}
    - targetCorrespondingSourceObject: {fileID: 919132149155446097, guid: 940e3933f0ae1dc4187e8de1d85ed486,
        type: 3}
      insertIndex: -1
      addedObject: {fileID: 5774474145762577619}
  m_SourcePrefab: {fileID: 100100000, guid: 940e3933f0ae1dc4187e8de1d85ed486, type: 3}
--- !u!1 &300860442992495034 stripped
GameObject:
  m_CorrespondingSourceObject: {fileID: 919132149155446097, guid: 940e3933f0ae1dc4187e8de1d85ed486,
    type: 3}
  m_PrefabInstance: {fileID: 643371719033484523}
  m_PrefabAsset: {fileID: 0}
--- !u!65 &6383953476098096719
BoxCollider:
  m_ObjectHideFlags: 0
  m_CorrespondingSourceObject: {fileID: 0}
  m_PrefabInstance: {fileID: 0}
  m_PrefabAsset: {fileID: 0}
  m_GameObject: {fileID: 300860442992495034}
  m_Material: {fileID: 0}
  m_IncludeLayers:
    serializedVersion: 2
    m_Bits: 0
  m_ExcludeLayers:
    serializedVersion: 2
    m_Bits: 0
  m_LayerOverridePriority: 0
  m_IsTrigger: 0
  m_ProvidesContacts: 0
  m_Enabled: 1
  serializedVersion: 3
  m_Size: {x: 0.02, y: 0.02, z: 0.0025355362}
  m_Center: {x: 0, y: 0, z: 0}
--- !u!114 &5774474145762577619
MonoBehaviour:
  m_ObjectHideFlags: 0
  m_CorrespondingSourceObject: {fileID: 0}
  m_PrefabInstance: {fileID: 0}
  m_PrefabAsset: {fileID: 0}
  m_GameObject: {fileID: 300860442992495034}
  m_Enabled: 1
  m_EditorHideFlags: 0
  m_Script: {fileID: 11500000, guid: edea1c21bd72f5642af101ac0bfd5f3d, type: 3}
  m_Name: 
  m_EditorClassIdentifier: 
  _rotationAngles: {x: 0, y: 360, z: 0}
  _duration: 2
  _easeType: 1
